^E:\UNI\UNREAL\SPIKE1\SPIKE2\NUMBERGUESINGGAME\HELPER.CPP|E:\UNI\UNREAL\SPIKE1\SPIKE2\NUMBERGUESINGGAME\MAIN.CPP|E:\UNI\UNREAL\SPIKE1\SPIKE2\NUMBERGUESINGGAME\NUMBERGUESS.CPP
E:\UNI\UNREAL\SPIKE1\SPIKE2\NUMBERGUESINGGAME\DEBUG\VC141.PDB
E:\UNI\UNREAL\SPIKE1\SPIKE2\NUMBERGUESINGGAME\DEBUG\VC141.IDB
E:\UNI\UNREAL\SPIKE1\SPIKE2\NUMBERGUESINGGAME\DEBUG\HELPER.OBJ
E:\UNI\UNREAL\SPIKE1\SPIKE2\NUMBERGUESINGGAME\DEBUG\MAIN.OBJ
E:\UNI\UNREAL\SPIKE1\SPIKE2\NUMBERGUESINGGAME\DEBUG\NUMBERGUESS.OBJ
^E:\UNI\UNREAL\SPIKE1\SPIKE2\NUMBERGUESINGGAME\HELPER.CPP
E:\UNI\UNREAL\SPIKE1\SPIKE2\NUMBERGUESINGGAME\DEBUG\VC141.PDB
^E:\UNI\UNREAL\SPIKE1\SPIKE2\NUMBERGUESINGGAME\MAIN.CPP
E:\UNI\UNREAL\SPIKE1\SPIKE2\NUMBERGUESINGGAME\DEBUG\VC141.PDB
E:\UNI\UNREAL\SPIKE1\SPIKE2\NUMBERGUESINGGAME\DEBUG\VC141.IDB
E:\UNI\UNREAL\SPIKE1\SPIKE2\NUMBERGUESINGGAME\DEBUG\MAIN.OBJ
^E:\UNI\UNREAL\SPIKE1\SPIKE2\NUMBERGUESINGGAME\NUMBERGUESS.CPP
E:\UNI\UNREAL\SPIKE1\SPIKE2\NUMBERGUESINGGAME\DEBUG\VC141.PDB
E:\UNI\UNREAL\SPIKE1\SPIKE2\NUMBERGUESINGGAME\DEBUG\VC141.IDB
E:\UNI\UNREAL\SPIKE1\SPIKE2\NUMBERGUESINGGAME\DEBUG\NUMBERGUESS.OBJ
